﻿<?xml version="1.0" encoding="utf-8"?>
<svg version="1.1" xmlns:xlink="http://www.w3.org/1999/xlink" width="12px" height="12px" xmlns="http://www.w3.org/2000/svg">
  <g transform="matrix(1 0 0 1 -197 -15 )">
    <path d="M 2.56289583087054 0.844343746205358  L 6 4.28144791553571  L 9.43710416912947 0.844343746205358  C 9.92811905049107 0.35332886484375  10.664641372433 0.35332886484375  11.1556562537946 0.844343746205358  C 11.6466711351563 1.33535862756696  11.6466711351563 2.07188094950893  11.1556562537946 2.56289583087054  L 7.71855208446429 6  L 11.1556562537946 9.43710416912947  C 11.6466711351563 9.92811905049107  11.6466711351563 10.664641372433  11.1556562537946 11.1556562537946  C 10.664641372433 11.6466711351563  9.92811905049107 11.6466711351563  9.43710416912947 11.1556562537946  L 6 7.71855208446429  L 2.56289583087053 11.1556562537946  C 2.07188094950893 11.6466711351563  1.33535862756696 11.6466711351563  0.844343746205357 11.1556562537946  C 0.353328864843749 10.664641372433  0.353328864843749 9.92811905049107  0.844343746205357 9.43710416912947  L 4.28144791553571 6  L 0.844343746205358 2.56289583087053  C 0.35332886484375 2.07188094930804  0.35332886484375 1.33535862756696  0.844343746205358 0.844343746205358  C 1.33535862756696 0.35332886484375  2.07188094950893 0.35332886484375  2.56289583087054 0.844343746205358  Z " fill-rule="nonzero" fill="#ffffff" stroke="none" fill-opacity="0.698039215686274" transform="matrix(1 0 0 1 197 15 )" />
  </g>
</svg>